2020-09-09T03:23:41+00:00 CRITICAL Uncaught TypeError: Argument 1 passed to CPF_Invoker::invokeSubmitFeed() must be an instance of MarketplaceWebService_Interface, boolean given, called in C:\laragon\www\odina\wp-content\plugins\exportfeed-woocommerce-data-feed-for-amazon-marketplace\core\crons\autoupload.php on line 53 and defined in C:\laragon\www\odina\wp-content\plugins\exportfeed-woocommerce-data-feed-for-amazon-marketplace\core\classes\invoker.php:14
Stack trace:
#0 C:\laragon\www\odina\wp-content\plugins\exportfeed-woocommerce-data-feed-for-amazon-marketplace\core\crons\autoupload.php(53): CPF_Invoker->invokeSubmitFeed(false, Object(MarketplaceWebService_Model_SubmitFeedRequest))
#1 C:\laragon\www\odina\wp-content\plugins\exportfeed-woocommerce-data-feed-for-amazon-marketplace\amazon-feed.php(186): Autouploader->submit()
#2 C:\laragon\www\odina\wp-includes\class-wp-hook.php(287): auto_loader_submission()
#3 C:\laragon\www\odina\wp-includes\class-wp-hook.php(311): WP_Hook->apply_filters('', Array)
#4 C:\laragon\www\odina\wp-includes\plug in C:\laragon\www\odina\wp-content\plugins\exportfeed-woocommerce-data-feed-for-amazon-marketplace\core\classes\invoker.php on line 14

2020-09-09T03:23:56+00:00 CRITICAL Uncaught Error: Only variables can be passed by reference in C:\laragon\www\odina\wp-content\plugins\ol_scrapes\classes\class-ol-scrapes.php:824
Stack trace:
#0 C:\laragon\www\odina\wp-includes\class-wp-hook.php(287): OL_Scrapes->process_task_queue('')
#1 C:\laragon\www\odina\wp-includes\class-wp-hook.php(311): WP_Hook->apply_filters('', Array)
#2 C:\laragon\www\odina\wp-includes\plugin.php(478): WP_Hook->do_action(Array)
#3 C:\laragon\www\odina\wp-admin\admin-ajax.php(191): do_action('wp_ajax_nopriv_...')
#4 {main}
  thrown in C:\laragon\www\odina\wp-content\plugins\ol_scrapes\classes\class-ol-scrapes.php on line 824

2020-09-09T05:27:23+00:00 CRITICAL Uncaught Error: Only variables can be passed by reference in C:\laragon\www\odina\wp-content\plugins\ol_scrapes\classes\class-ol-scrapes.php:824
Stack trace:
#0 C:\laragon\www\odina\wp-includes\class-wp-hook.php(287): OL_Scrapes->process_task_queue('')
#1 C:\laragon\www\odina\wp-includes\class-wp-hook.php(311): WP_Hook->apply_filters('', Array)
#2 C:\laragon\www\odina\wp-includes\plugin.php(478): WP_Hook->do_action(Array)
#3 C:\laragon\www\odina\wp-admin\admin-ajax.php(191): do_action('wp_ajax_nopriv_...')
#4 {main}
  thrown in C:\laragon\www\odina\wp-content\plugins\ol_scrapes\classes\class-ol-scrapes.php on line 824

2020-09-09T05:27:36+00:00 CRITICAL Uncaught Error: Only variables can be passed by reference in C:\laragon\www\odina\wp-content\plugins\ol_scrapes\classes\class-ol-scrapes.php:824
Stack trace:
#0 C:\laragon\www\odina\wp-includes\class-wp-hook.php(287): OL_Scrapes->process_task_queue('')
#1 C:\laragon\www\odina\wp-includes\class-wp-hook.php(311): WP_Hook->apply_filters('', Array)
#2 C:\laragon\www\odina\wp-includes\plugin.php(478): WP_Hook->do_action(Array)
#3 C:\laragon\www\odina\wp-admin\admin-ajax.php(191): do_action('wp_ajax_nopriv_...')
#4 {main}
  thrown in C:\laragon\www\odina\wp-content\plugins\ol_scrapes\classes\class-ol-scrapes.php on line 824

2020-09-09T05:27:38+00:00 CRITICAL Uncaught Error: Only variables can be passed by reference in C:\laragon\www\odina\wp-content\plugins\ol_scrapes\classes\class-ol-scrapes.php:824
Stack trace:
#0 C:\laragon\www\odina\wp-includes\class-wp-hook.php(287): OL_Scrapes->process_task_queue('')
#1 C:\laragon\www\odina\wp-includes\class-wp-hook.php(311): WP_Hook->apply_filters('', Array)
#2 C:\laragon\www\odina\wp-includes\plugin.php(478): WP_Hook->do_action(Array)
#3 C:\laragon\www\odina\wp-admin\admin-ajax.php(191): do_action('wp_ajax_nopriv_...')
#4 {main}
  thrown in C:\laragon\www\odina\wp-content\plugins\ol_scrapes\classes\class-ol-scrapes.php on line 824

2020-09-09T05:27:41+00:00 CRITICAL Uncaught Error: Only variables can be passed by reference in C:\laragon\www\odina\wp-content\plugins\ol_scrapes\classes\class-ol-scrapes.php:824
Stack trace:
#0 C:\laragon\www\odina\wp-includes\class-wp-hook.php(287): OL_Scrapes->process_task_queue('')
#1 C:\laragon\www\odina\wp-includes\class-wp-hook.php(311): WP_Hook->apply_filters('', Array)
#2 C:\laragon\www\odina\wp-includes\plugin.php(478): WP_Hook->do_action(Array)
#3 C:\laragon\www\odina\wp-admin\admin-ajax.php(191): do_action('wp_ajax_nopriv_...')
#4 {main}
  thrown in C:\laragon\www\odina\wp-content\plugins\ol_scrapes\classes\class-ol-scrapes.php on line 824

2020-09-09T05:27:42+00:00 CRITICAL Uncaught TypeError: Argument 1 passed to CPF_Invoker::invokeSubmitFeed() must be an instance of MarketplaceWebService_Interface, boolean given, called in C:\laragon\www\odina\wp-content\plugins\exportfeed-woocommerce-data-feed-for-amazon-marketplace\core\crons\autoupload.php on line 53 and defined in C:\laragon\www\odina\wp-content\plugins\exportfeed-woocommerce-data-feed-for-amazon-marketplace\core\classes\invoker.php:14
Stack trace:
#0 C:\laragon\www\odina\wp-content\plugins\exportfeed-woocommerce-data-feed-for-amazon-marketplace\core\crons\autoupload.php(53): CPF_Invoker->invokeSubmitFeed(false, Object(MarketplaceWebService_Model_SubmitFeedRequest))
#1 C:\laragon\www\odina\wp-content\plugins\exportfeed-woocommerce-data-feed-for-amazon-marketplace\amazon-feed.php(186): Autouploader->submit()
#2 C:\laragon\www\odina\wp-includes\class-wp-hook.php(287): auto_loader_submission()
#3 C:\laragon\www\odina\wp-includes\class-wp-hook.php(311): WP_Hook->apply_filters('', Array)
#4 C:\laragon\www\odina\wp-includes\plug in C:\laragon\www\odina\wp-content\plugins\exportfeed-woocommerce-data-feed-for-amazon-marketplace\core\classes\invoker.php on line 14

2020-09-09T06:04:02+00:00 CRITICAL Uncaught TypeError: Argument 1 passed to CPF_Invoker::invokeSubmitFeed() must be an instance of MarketplaceWebService_Interface, boolean given, called in C:\laragon\www\odina\wp-content\plugins\exportfeed-woocommerce-data-feed-for-amazon-marketplace\core\crons\autoupload.php on line 53 and defined in C:\laragon\www\odina\wp-content\plugins\exportfeed-woocommerce-data-feed-for-amazon-marketplace\core\classes\invoker.php:14
Stack trace:
#0 C:\laragon\www\odina\wp-content\plugins\exportfeed-woocommerce-data-feed-for-amazon-marketplace\core\crons\autoupload.php(53): CPF_Invoker->invokeSubmitFeed(false, Object(MarketplaceWebService_Model_SubmitFeedRequest))
#1 C:\laragon\www\odina\wp-content\plugins\exportfeed-woocommerce-data-feed-for-amazon-marketplace\amazon-feed.php(186): Autouploader->submit()
#2 C:\laragon\www\odina\wp-includes\class-wp-hook.php(287): auto_loader_submission()
#3 C:\laragon\www\odina\wp-includes\class-wp-hook.php(311): WP_Hook->apply_filters('', Array)
#4 C:\laragon\www\odina\wp-includes\plug in C:\laragon\www\odina\wp-content\plugins\exportfeed-woocommerce-data-feed-for-amazon-marketplace\core\classes\invoker.php on line 14

2020-09-09T06:04:03+00:00 CRITICAL Uncaught Error: Only variables can be passed by reference in C:\laragon\www\odina\wp-content\plugins\ol_scrapes\classes\class-ol-scrapes.php:824
Stack trace:
#0 C:\laragon\www\odina\wp-includes\class-wp-hook.php(287): OL_Scrapes->process_task_queue('')
#1 C:\laragon\www\odina\wp-includes\class-wp-hook.php(311): WP_Hook->apply_filters('', Array)
#2 C:\laragon\www\odina\wp-includes\plugin.php(478): WP_Hook->do_action(Array)
#3 C:\laragon\www\odina\wp-admin\admin-ajax.php(191): do_action('wp_ajax_nopriv_...')
#4 {main}
  thrown in C:\laragon\www\odina\wp-content\plugins\ol_scrapes\classes\class-ol-scrapes.php on line 824

2020-09-09T06:04:04+00:00 CRITICAL Uncaught Error: Only variables can be passed by reference in C:\laragon\www\odina\wp-content\plugins\ol_scrapes\classes\class-ol-scrapes.php:824
Stack trace:
#0 C:\laragon\www\odina\wp-includes\class-wp-hook.php(287): OL_Scrapes->process_task_queue('')
#1 C:\laragon\www\odina\wp-includes\class-wp-hook.php(311): WP_Hook->apply_filters('', Array)
#2 C:\laragon\www\odina\wp-includes\plugin.php(478): WP_Hook->do_action(Array)
#3 C:\laragon\www\odina\wp-admin\admin-ajax.php(191): do_action('wp_ajax_nopriv_...')
#4 {main}
  thrown in C:\laragon\www\odina\wp-content\plugins\ol_scrapes\classes\class-ol-scrapes.php on line 824

2020-09-09T06:08:58+00:00 CRITICAL Uncaught TypeError: Argument 1 passed to CPF_Invoker::invokeSubmitFeed() must be an instance of MarketplaceWebService_Interface, boolean given, called in C:\laragon\www\odina\wp-content\plugins\exportfeed-woocommerce-data-feed-for-amazon-marketplace\core\crons\autoupload.php on line 53 and defined in C:\laragon\www\odina\wp-content\plugins\exportfeed-woocommerce-data-feed-for-amazon-marketplace\core\classes\invoker.php:14
Stack trace:
#0 C:\laragon\www\odina\wp-content\plugins\exportfeed-woocommerce-data-feed-for-amazon-marketplace\core\crons\autoupload.php(53): CPF_Invoker->invokeSubmitFeed(false, Object(MarketplaceWebService_Model_SubmitFeedRequest))
#1 C:\laragon\www\odina\wp-content\plugins\exportfeed-woocommerce-data-feed-for-amazon-marketplace\amazon-feed.php(186): Autouploader->submit()
#2 C:\laragon\www\odina\wp-includes\class-wp-hook.php(287): auto_loader_submission()
#3 C:\laragon\www\odina\wp-includes\class-wp-hook.php(311): WP_Hook->apply_filters('', Array)
#4 C:\laragon\www\odina\wp-includes\plug in C:\laragon\www\odina\wp-content\plugins\exportfeed-woocommerce-data-feed-for-amazon-marketplace\core\classes\invoker.php on line 14

2020-09-09T06:24:11+00:00 CRITICAL Uncaught TypeError: Argument 1 passed to CPF_Invoker::invokeSubmitFeed() must be an instance of MarketplaceWebService_Interface, boolean given, called in C:\laragon\www\odina\wp-content\plugins\exportfeed-woocommerce-data-feed-for-amazon-marketplace\core\crons\autoupload.php on line 53 and defined in C:\laragon\www\odina\wp-content\plugins\exportfeed-woocommerce-data-feed-for-amazon-marketplace\core\classes\invoker.php:14
Stack trace:
#0 C:\laragon\www\odina\wp-content\plugins\exportfeed-woocommerce-data-feed-for-amazon-marketplace\core\crons\autoupload.php(53): CPF_Invoker->invokeSubmitFeed(false, Object(MarketplaceWebService_Model_SubmitFeedRequest))
#1 C:\laragon\www\odina\wp-content\plugins\exportfeed-woocommerce-data-feed-for-amazon-marketplace\amazon-feed.php(186): Autouploader->submit()
#2 C:\laragon\www\odina\wp-includes\class-wp-hook.php(287): auto_loader_submission()
#3 C:\laragon\www\odina\wp-includes\class-wp-hook.php(311): WP_Hook->apply_filters('', Array)
#4 C:\laragon\www\odina\wp-includes\plug in C:\laragon\www\odina\wp-content\plugins\exportfeed-woocommerce-data-feed-for-amazon-marketplace\core\classes\invoker.php on line 14

2020-09-09T06:27:40+00:00 CRITICAL Uncaught Error: Only variables can be passed by reference in C:\laragon\www\odina\wp-content\plugins\ol_scrapes\classes\class-ol-scrapes.php:824
Stack trace:
#0 C:\laragon\www\odina\wp-includes\class-wp-hook.php(287): OL_Scrapes->process_task_queue('')
#1 C:\laragon\www\odina\wp-includes\class-wp-hook.php(311): WP_Hook->apply_filters('', Array)
#2 C:\laragon\www\odina\wp-includes\plugin.php(478): WP_Hook->do_action(Array)
#3 C:\laragon\www\odina\wp-admin\admin-ajax.php(191): do_action('wp_ajax_nopriv_...')
#4 {main}
  thrown in C:\laragon\www\odina\wp-content\plugins\ol_scrapes\classes\class-ol-scrapes.php on line 824

2020-09-09T06:39:02+00:00 CRITICAL Uncaught TypeError: Argument 1 passed to CPF_Invoker::invokeSubmitFeed() must be an instance of MarketplaceWebService_Interface, boolean given, called in C:\laragon\www\odina\wp-content\plugins\exportfeed-woocommerce-data-feed-for-amazon-marketplace\core\crons\autoupload.php on line 53 and defined in C:\laragon\www\odina\wp-content\plugins\exportfeed-woocommerce-data-feed-for-amazon-marketplace\core\classes\invoker.php:14
Stack trace:
#0 C:\laragon\www\odina\wp-content\plugins\exportfeed-woocommerce-data-feed-for-amazon-marketplace\core\crons\autoupload.php(53): CPF_Invoker->invokeSubmitFeed(false, Object(MarketplaceWebService_Model_SubmitFeedRequest))
#1 C:\laragon\www\odina\wp-content\plugins\exportfeed-woocommerce-data-feed-for-amazon-marketplace\amazon-feed.php(186): Autouploader->submit()
#2 C:\laragon\www\odina\wp-includes\class-wp-hook.php(287): auto_loader_submission()
#3 C:\laragon\www\odina\wp-includes\class-wp-hook.php(311): WP_Hook->apply_filters('', Array)
#4 C:\laragon\www\odina\wp-includes\plug in C:\laragon\www\odina\wp-content\plugins\exportfeed-woocommerce-data-feed-for-amazon-marketplace\core\classes\invoker.php on line 14

2020-09-09T06:53:59+00:00 CRITICAL Uncaught TypeError: Argument 1 passed to CPF_Invoker::invokeSubmitFeed() must be an instance of MarketplaceWebService_Interface, boolean given, called in C:\laragon\www\odina\wp-content\plugins\exportfeed-woocommerce-data-feed-for-amazon-marketplace\core\crons\autoupload.php on line 53 and defined in C:\laragon\www\odina\wp-content\plugins\exportfeed-woocommerce-data-feed-for-amazon-marketplace\core\classes\invoker.php:14
Stack trace:
#0 C:\laragon\www\odina\wp-content\plugins\exportfeed-woocommerce-data-feed-for-amazon-marketplace\core\crons\autoupload.php(53): CPF_Invoker->invokeSubmitFeed(false, Object(MarketplaceWebService_Model_SubmitFeedRequest))
#1 C:\laragon\www\odina\wp-content\plugins\exportfeed-woocommerce-data-feed-for-amazon-marketplace\amazon-feed.php(186): Autouploader->submit()
#2 C:\laragon\www\odina\wp-includes\class-wp-hook.php(287): auto_loader_submission()
#3 C:\laragon\www\odina\wp-includes\class-wp-hook.php(311): WP_Hook->apply_filters('', Array)
#4 C:\laragon\www\odina\wp-includes\plug in C:\laragon\www\odina\wp-content\plugins\exportfeed-woocommerce-data-feed-for-amazon-marketplace\core\classes\invoker.php on line 14

2020-09-09T07:08:59+00:00 CRITICAL Uncaught TypeError: Argument 1 passed to CPF_Invoker::invokeSubmitFeed() must be an instance of MarketplaceWebService_Interface, boolean given, called in C:\laragon\www\odina\wp-content\plugins\exportfeed-woocommerce-data-feed-for-amazon-marketplace\core\crons\autoupload.php on line 53 and defined in C:\laragon\www\odina\wp-content\plugins\exportfeed-woocommerce-data-feed-for-amazon-marketplace\core\classes\invoker.php:14
Stack trace:
#0 C:\laragon\www\odina\wp-content\plugins\exportfeed-woocommerce-data-feed-for-amazon-marketplace\core\crons\autoupload.php(53): CPF_Invoker->invokeSubmitFeed(false, Object(MarketplaceWebService_Model_SubmitFeedRequest))
#1 C:\laragon\www\odina\wp-content\plugins\exportfeed-woocommerce-data-feed-for-amazon-marketplace\amazon-feed.php(186): Autouploader->submit()
#2 C:\laragon\www\odina\wp-includes\class-wp-hook.php(287): auto_loader_submission()
#3 C:\laragon\www\odina\wp-includes\class-wp-hook.php(311): WP_Hook->apply_filters('', Array)
#4 C:\laragon\www\odina\wp-includes\plug in C:\laragon\www\odina\wp-content\plugins\exportfeed-woocommerce-data-feed-for-amazon-marketplace\core\classes\invoker.php on line 14

2020-09-09T07:24:04+00:00 CRITICAL Uncaught TypeError: Argument 1 passed to CPF_Invoker::invokeSubmitFeed() must be an instance of MarketplaceWebService_Interface, boolean given, called in C:\laragon\www\odina\wp-content\plugins\exportfeed-woocommerce-data-feed-for-amazon-marketplace\core\crons\autoupload.php on line 53 and defined in C:\laragon\www\odina\wp-content\plugins\exportfeed-woocommerce-data-feed-for-amazon-marketplace\core\classes\invoker.php:14
Stack trace:
#0 C:\laragon\www\odina\wp-content\plugins\exportfeed-woocommerce-data-feed-for-amazon-marketplace\core\crons\autoupload.php(53): CPF_Invoker->invokeSubmitFeed(false, Object(MarketplaceWebService_Model_SubmitFeedRequest))
#1 C:\laragon\www\odina\wp-content\plugins\exportfeed-woocommerce-data-feed-for-amazon-marketplace\amazon-feed.php(186): Autouploader->submit()
#2 C:\laragon\www\odina\wp-includes\class-wp-hook.php(287): auto_loader_submission()
#3 C:\laragon\www\odina\wp-includes\class-wp-hook.php(311): WP_Hook->apply_filters('', Array)
#4 C:\laragon\www\odina\wp-includes\plug in C:\laragon\www\odina\wp-content\plugins\exportfeed-woocommerce-data-feed-for-amazon-marketplace\core\classes\invoker.php on line 14

2020-09-09T07:27:51+00:00 CRITICAL Uncaught Error: Only variables can be passed by reference in C:\laragon\www\odina\wp-content\plugins\ol_scrapes\classes\class-ol-scrapes.php:824
Stack trace:
#0 C:\laragon\www\odina\wp-includes\class-wp-hook.php(287): OL_Scrapes->process_task_queue('')
#1 C:\laragon\www\odina\wp-includes\class-wp-hook.php(311): WP_Hook->apply_filters('', Array)
#2 C:\laragon\www\odina\wp-includes\plugin.php(478): WP_Hook->do_action(Array)
#3 C:\laragon\www\odina\wp-admin\admin-ajax.php(191): do_action('wp_ajax_nopriv_...')
#4 {main}
  thrown in C:\laragon\www\odina\wp-content\plugins\ol_scrapes\classes\class-ol-scrapes.php on line 824

2020-09-09T07:39:08+00:00 CRITICAL Uncaught TypeError: Argument 1 passed to CPF_Invoker::invokeSubmitFeed() must be an instance of MarketplaceWebService_Interface, boolean given, called in C:\laragon\www\odina\wp-content\plugins\exportfeed-woocommerce-data-feed-for-amazon-marketplace\core\crons\autoupload.php on line 53 and defined in C:\laragon\www\odina\wp-content\plugins\exportfeed-woocommerce-data-feed-for-amazon-marketplace\core\classes\invoker.php:14
Stack trace:
#0 C:\laragon\www\odina\wp-content\plugins\exportfeed-woocommerce-data-feed-for-amazon-marketplace\core\crons\autoupload.php(53): CPF_Invoker->invokeSubmitFeed(false, Object(MarketplaceWebService_Model_SubmitFeedRequest))
#1 C:\laragon\www\odina\wp-content\plugins\exportfeed-woocommerce-data-feed-for-amazon-marketplace\amazon-feed.php(186): Autouploader->submit()
#2 C:\laragon\www\odina\wp-includes\class-wp-hook.php(287): auto_loader_submission()
#3 C:\laragon\www\odina\wp-includes\class-wp-hook.php(311): WP_Hook->apply_filters('', Array)
#4 C:\laragon\www\odina\wp-includes\plug in C:\laragon\www\odina\wp-content\plugins\exportfeed-woocommerce-data-feed-for-amazon-marketplace\core\classes\invoker.php on line 14

2020-09-09T07:55:09+00:00 CRITICAL Uncaught TypeError: Argument 1 passed to CPF_Invoker::invokeSubmitFeed() must be an instance of MarketplaceWebService_Interface, boolean given, called in C:\laragon\www\odina\wp-content\plugins\exportfeed-woocommerce-data-feed-for-amazon-marketplace\core\crons\autoupload.php on line 53 and defined in C:\laragon\www\odina\wp-content\plugins\exportfeed-woocommerce-data-feed-for-amazon-marketplace\core\classes\invoker.php:14
Stack trace:
#0 C:\laragon\www\odina\wp-content\plugins\exportfeed-woocommerce-data-feed-for-amazon-marketplace\core\crons\autoupload.php(53): CPF_Invoker->invokeSubmitFeed(false, Object(MarketplaceWebService_Model_SubmitFeedRequest))
#1 C:\laragon\www\odina\wp-content\plugins\exportfeed-woocommerce-data-feed-for-amazon-marketplace\amazon-feed.php(186): Autouploader->submit()
#2 C:\laragon\www\odina\wp-includes\class-wp-hook.php(287): auto_loader_submission()
#3 C:\laragon\www\odina\wp-includes\class-wp-hook.php(311): WP_Hook->apply_filters('', Array)
#4 C:\laragon\www\odina\wp-includes\plug in C:\laragon\www\odina\wp-content\plugins\exportfeed-woocommerce-data-feed-for-amazon-marketplace\core\classes\invoker.php on line 14

2020-09-09T08:09:10+00:00 CRITICAL Uncaught TypeError: Argument 1 passed to CPF_Invoker::invokeSubmitFeed() must be an instance of MarketplaceWebService_Interface, boolean given, called in C:\laragon\www\odina\wp-content\plugins\exportfeed-woocommerce-data-feed-for-amazon-marketplace\core\crons\autoupload.php on line 53 and defined in C:\laragon\www\odina\wp-content\plugins\exportfeed-woocommerce-data-feed-for-amazon-marketplace\core\classes\invoker.php:14
Stack trace:
#0 C:\laragon\www\odina\wp-content\plugins\exportfeed-woocommerce-data-feed-for-amazon-marketplace\core\crons\autoupload.php(53): CPF_Invoker->invokeSubmitFeed(false, Object(MarketplaceWebService_Model_SubmitFeedRequest))
#1 C:\laragon\www\odina\wp-content\plugins\exportfeed-woocommerce-data-feed-for-amazon-marketplace\amazon-feed.php(186): Autouploader->submit()
#2 C:\laragon\www\odina\wp-includes\class-wp-hook.php(287): auto_loader_submission()
#3 C:\laragon\www\odina\wp-includes\class-wp-hook.php(311): WP_Hook->apply_filters('', Array)
#4 C:\laragon\www\odina\wp-includes\plug in C:\laragon\www\odina\wp-content\plugins\exportfeed-woocommerce-data-feed-for-amazon-marketplace\core\classes\invoker.php on line 14

2020-09-09T08:25:10+00:00 CRITICAL Uncaught TypeError: Argument 1 passed to CPF_Invoker::invokeSubmitFeed() must be an instance of MarketplaceWebService_Interface, boolean given, called in C:\laragon\www\odina\wp-content\plugins\exportfeed-woocommerce-data-feed-for-amazon-marketplace\core\crons\autoupload.php on line 53 and defined in C:\laragon\www\odina\wp-content\plugins\exportfeed-woocommerce-data-feed-for-amazon-marketplace\core\classes\invoker.php:14
Stack trace:
#0 C:\laragon\www\odina\wp-content\plugins\exportfeed-woocommerce-data-feed-for-amazon-marketplace\core\crons\autoupload.php(53): CPF_Invoker->invokeSubmitFeed(false, Object(MarketplaceWebService_Model_SubmitFeedRequest))
#1 C:\laragon\www\odina\wp-content\plugins\exportfeed-woocommerce-data-feed-for-amazon-marketplace\amazon-feed.php(186): Autouploader->submit()
#2 C:\laragon\www\odina\wp-includes\class-wp-hook.php(287): auto_loader_submission()
#3 C:\laragon\www\odina\wp-includes\class-wp-hook.php(311): WP_Hook->apply_filters('', Array)
#4 C:\laragon\www\odina\wp-includes\plug in C:\laragon\www\odina\wp-content\plugins\exportfeed-woocommerce-data-feed-for-amazon-marketplace\core\classes\invoker.php on line 14

2020-09-09T08:29:11+00:00 CRITICAL Uncaught Error: Only variables can be passed by reference in C:\laragon\www\odina\wp-content\plugins\ol_scrapes\classes\class-ol-scrapes.php:824
Stack trace:
#0 C:\laragon\www\odina\wp-includes\class-wp-hook.php(287): OL_Scrapes->process_task_queue('')
#1 C:\laragon\www\odina\wp-includes\class-wp-hook.php(311): WP_Hook->apply_filters('', Array)
#2 C:\laragon\www\odina\wp-includes\plugin.php(478): WP_Hook->do_action(Array)
#3 C:\laragon\www\odina\wp-admin\admin-ajax.php(191): do_action('wp_ajax_nopriv_...')
#4 {main}
  thrown in C:\laragon\www\odina\wp-content\plugins\ol_scrapes\classes\class-ol-scrapes.php on line 824

2020-09-09T11:06:43+00:00 CRITICAL Uncaught TypeError: Argument 1 passed to CPF_Invoker::invokeSubmitFeed() must be an instance of MarketplaceWebService_Interface, boolean given, called in C:\laragon\www\odina\wp-content\plugins\exportfeed-woocommerce-data-feed-for-amazon-marketplace\core\crons\autoupload.php on line 53 and defined in C:\laragon\www\odina\wp-content\plugins\exportfeed-woocommerce-data-feed-for-amazon-marketplace\core\classes\invoker.php:14
Stack trace:
#0 C:\laragon\www\odina\wp-content\plugins\exportfeed-woocommerce-data-feed-for-amazon-marketplace\core\crons\autoupload.php(53): CPF_Invoker->invokeSubmitFeed(false, Object(MarketplaceWebService_Model_SubmitFeedRequest))
#1 C:\laragon\www\odina\wp-content\plugins\exportfeed-woocommerce-data-feed-for-amazon-marketplace\amazon-feed.php(186): Autouploader->submit()
#2 C:\laragon\www\odina\wp-includes\class-wp-hook.php(287): auto_loader_submission()
#3 C:\laragon\www\odina\wp-includes\class-wp-hook.php(311): WP_Hook->apply_filters('', Array)
#4 C:\laragon\www\odina\wp-includes\plug in C:\laragon\www\odina\wp-content\plugins\exportfeed-woocommerce-data-feed-for-amazon-marketplace\core\classes\invoker.php on line 14

2020-09-09T11:06:44+00:00 CRITICAL Uncaught Error: Only variables can be passed by reference in C:\laragon\www\odina\wp-content\plugins\ol_scrapes\classes\class-ol-scrapes.php:824
Stack trace:
#0 C:\laragon\www\odina\wp-includes\class-wp-hook.php(287): OL_Scrapes->process_task_queue('')
#1 C:\laragon\www\odina\wp-includes\class-wp-hook.php(311): WP_Hook->apply_filters('', Array)
#2 C:\laragon\www\odina\wp-includes\plugin.php(478): WP_Hook->do_action(Array)
#3 C:\laragon\www\odina\wp-admin\admin-ajax.php(191): do_action('wp_ajax_nopriv_...')
#4 {main}
  thrown in C:\laragon\www\odina\wp-content\plugins\ol_scrapes\classes\class-ol-scrapes.php on line 824

